   0 PUSH=  0
   2 PUSH=  0
   4 PUSH=  0
   6 PUSH=  0
   8 PUSH=  0
  10 PUSH=  112
  12 OUTPUTCH
  13 PUSH=  114
  15 OUTPUTCH
  16 PUSH=  105
  18 OUTPUTCH
  19 PUSH=  109
  21 OUTPUTCH
  22 PUSH=  111
  24 OUTPUTCH
  25 PUSH=  32
  27 OUTPUTCH
  28 PUSH=  110
  30 OUTPUTCH
  31 PUSH=  117
  33 OUTPUTCH
  34 PUSH=  109
  36 OUTPUTCH
  37 PUSH=  101
  39 OUTPUTCH
  40 PUSH=  114
  42 OUTPUTCH
  43 PUSH=  111
  45 OUTPUTCH
  46 PUSH=  63
  48 OUTPUTCH
  49 PUSH=  32
  51 OUTPUTCH
  52 INPUT
  53 POP    2
  55 PUSH=  115
  57 OUTPUTCH
  58 PUSH=  101
  60 OUTPUTCH
  61 PUSH=  99
  63 OUTPUTCH
  64 PUSH=  111
  66 OUTPUTCH
  67 PUSH=  110
  69 OUTPUTCH
  70 PUSH=  100
  72 OUTPUTCH
  73 PUSH=  111
  75 OUTPUTCH
  76 PUSH=  32
  78 OUTPUTCH
  79 PUSH=  110
  81 OUTPUTCH
  82 PUSH=  117
  84 OUTPUTCH
  85 PUSH=  109
  87 OUTPUTCH
  88 PUSH=  101
  90 OUTPUTCH
  91 PUSH=  114
  93 OUTPUTCH
  94 PUSH=  111
  96 OUTPUTCH
  97 PUSH=  63
  99 OUTPUTCH
 100 PUSH=  32
 102 OUTPUTCH
 103 INPUT
 104 POP    3
 106 PUSH=  0
 108 POP    4
 110 PUSH   2
 112 PUSH   3
 114 MUL
 115 JZERO  140
 117 PUSH   2
 119 PUSH=  1
 121 SUB
 122 POP    2
 124 PUSH   3
 126 PUSH=  1
 128 SUB
 129 POP    3
 131 PUSH   4
 133 PUSH=  1
 135 ADD
 136 POP    4
 138 JUMP   110
 140 PUSH   4
 142 OUTPUT
 143 PUSH=  10
 145 OUTPUTCH
 146 PUSH=  10
 148 OUTPUTCH
 149 HALT

