  0 PUSH=  0
  2 PUSH=  0
  4 PUSH=  0
  6 PUSH=  0
  8 PUSH=  1
 10 SUB
 11 PUSH=  2
 13 SUB
 14 POP    2
 16 PUSH=  97
 18 OUTPUTCH
 19 PUSH=  32
 21 OUTPUTCH
 22 PUSH=  61
 24 OUTPUTCH
 25 PUSH=  32
 27 OUTPUTCH
 28 PUSH   2
 30 OUTPUT
 31 PUSH=  10
 33 OUTPUTCH
 34 HALT

